{
    "back_violet": "2:REDMI NOTE 7 PRO:ANXCamera:ANX Ultrapixel",
    "violet_a_l_h_l": "360",
    "violet_a_l_l_l": "370",
    "violet_c_0x01_p_g_a_v": "284",
    "violet_c_0x0c": "true",
    "violet_c_0x11": "true",
    "violet_c_0x1c": "true",
    "violet_c_0x31": "true",
    "violet_c_0x59": "true",
    "violet_c_19039_0x0004": "1:8000x6000",
    "violet_c_22367_0x0000": "true",
    "violet_c_e_f_a_l": "true",
    "violet_e_p_p_l_t": "true",
    "violet_i_q_a_u_m": "true",
    "violet_pref_device_watermark_default": "false",
    "violet_s_c_w_b": "false",
    "violet_s_f_a": "true",
    "violet_s_f_s": "true",
    "violet_s_i_a": "true",
    "violet_s_m_c_t_f": "true",
    "violet_s_o_a_w": "true",
    "violet_s_p_a": "true",
    "violet_s_p_l_b": "true",
    "violet_s_p_l_i_e": "true",
    "violet_s_s_n": "true"
}
